Preparing to Analyze Your Data in R | LAMP Platform
…
Copy

Get engagement and plot activity histogram#
engagement_data <- inner_join(results %>% dplyr::count(id), 
                              results %>% group_by(id) %>% filter(row_number()==n()) %>% select(id, timestamp), 
                              by="id") %>% 
  rename(activities.completed = n) %>% rename(most.recent.activity = timestamp)

engagement_data

Copy

Code Output#
## # A tibble: 27 x 3
##    id          activities.completed most.recent.activity
##    <chr>                      <int> <dttm>              
##  1 U1005979819                  659 2019-11-16 22:50:57 
##  2 U1094374134                 2085 2019-08-14 12:23:15 
##  3 U1126469507                  503 2019-12-10 21:52:20 
##  4 U1232915366                  226 2020-01-29 00:51:34 
##  5 U1235780769                  767 2019-12-09 20:08:02 
##  6 U1367615199                  813 2019-11-13 16:11:09 
##  7 U1500960001                  742 2019-10-25 21:26:24 
##  8 U1680931766                 1070 2019-12-13 22:41:58 
##  9 U176381486                   585 2019-11-08 18:45:24 
## 10 U2127860149                  170 2019-11-13 16:51:52 
## # … with 17 more rows
…
